ultrasonicradar/simulation/qsim/Lab_1.msim.vcd
$comment
	File created using the following command:
		vcd file Lab_1.msim.vcd -direction
$end
$date
	Tue Aug 06 18:35:11 2019
$end
$version
	ModelSim Version 10.5b
$end
$timescale
	1ps
$end

$scope module HexToSSD_vlg_vec_tst $end
$var reg 1 ! W $end
$var reg 1 " X $end
$var reg 1 # Y $end
$var reg 1 $ Z $end
$var wire 1 % SegA $end
$var wire 1 & SegB $end
$var wire 1 ' SegC $end
$var wire 1 ( SegD $end
$var wire 1 ) SegE $end
$var wire 1 * SegF $end
$var wire 1 + SegG $end

$scope module i1 $end
$var wire 1 , gnd $end
$var wire 1 - vcc $end
$var wire 1 . unknown $end
$var tri1 1 / devclrn $end
$var tri1 1 0 devpor $end
$var tri1 1 1 devoe $end
$var wire 1 2 SegA~output_o $end
$var wire 1 3 SegB~output_o $end
$var wire 1 4 SegC~output_o $end
$var wire 1 5 SegD~output_o $end
$var wire 1 6 SegE~output_o $end
$var wire 1 7 SegF~output_o $end
$var wire 1 8 SegG~output_o $end
$var wire 1 9 Y~input_o $end
$var wire 1 : W~input_o $end
$var wire 1 ; X~input_o $end
$var wire 1 < Z~input_o $end
$var wire 1 = inst2|inst8~0_combout $end
$var wire 1 > inst4|inst10~0_combout $end
$var wire 1 ? inst5|inst9~0_combout $end
$var wire 1 @ inst6|inst12~0_combout $end
$var wire 1 A inst7|inst8~0_combout $end
$var wire 1 B inst|inst10~0_combout $end
$var wire 1 C inst8|inst10~0_combout $end
$upscope $end
$upscope $end
$enddefinitions $end
#0
$dumpvars
0!
0"
0#
0$
1%
1&
1'
1(
1)
1*
0+
0,
1-
x.
1/
10
11
12
13
14
15
16
17
08
09
0:
0;
0<
0=
1>
1?
0@
1A
1B
0C
$end
#5000
1$
1<
1@
1=
0B
0A
06
07
02
05
0(
0%
0*
0)
#10000
1#
0$
19
0<
0@
0=
1C
1A
0?
04
16
18
12
15
1(
1%
1+
1)
0'
#15000
1$
1<
0A
1?
14
06
0)
1'
#20000
1"
0#
0$
1;
09
0<
1@
1=
1B
17
02
05
0(
0%
1*
#25000
1$
1<
0@
0=
0>
03
12
15
1(
1%
0&
#30000
1#
0$
19
0<
1A
16
1)
#35000
1$
1<
1@
0C
0B
0A
1>
13
06
07
08
05
0(
0+
0*
0)
1&
#40000
1!
0"
0#
0$
1:
0;
09
0<
0@
1C
1B
1A
16
17
18
15
1(
1+
1*
1)
#45000
1$
1<
0A
06
0)
#50000
1#
0$
19
0<
1@
1A
16
05
0(
1)
#55000
1$
1<
0@
1=
0>
03
02
15
1(
0%
0&
#60000
1"
0#
0$
1;
09
0<
0=
0C
0?
04
08
12
1%
0+
0'
#65000
1$
1<
1=
1C
0B
1?
1>
13
14
07
18
02
0%
1+
0*
1'
1&
#70000
1#
0$
19
0<
0=
1B
0?
0>
03
04
17
12
1%
1*
0'
0&
#75000
1$
1<
1@
05
0(
#80000
0!
0"
0#
0$
0:
0;
09
0<
0@
0C
1?
1>
13
14
08
15
1(
0+
1'
1&
#85000
1$
1<
1@
1=
0B
0A
06
07
02
05
0(
0%
0*
0)
#90000
1#
0$
19
0<
0@
0=
1C
1A
0?
04
16
18
12
15
1(
1%
1+
1)
0'
#95000
1$
1<
0A
1?
14
06
0)
1'
#100000
1"
0#
0$
1;
09
0<
1@
1=
1B
17
02
05
0(
0%
1*
#105000
1$
1<
0@
0=
0>
03
12
15
1(
1%
0&
#110000
1#
0$
19
0<
1A
16
1)
#115000
1$
1<
1@
0C
0B
0A
1>
13
06
07
08
05
0(
0+
0*
0)
1&
#120000
1!
0"
0#
0$
1:
0;
09
0<
0@
1C
1B
1A
16
17
18
15
1(
1+
1*
1)
#125000
1$
1<
0A
06
0)
#130000
1#
0$
19
0<
1@
1A
16
05
0(
1)
#135000
1$
1<
0@
1=
0>
03
02
15
1(
0%
0&
#140000
1"
0#
0$
1;
09
0<
0=
0C
0?
04
08
12
1%
0+
0'
#145000
1$
1<
1=
1C
0B
1?
1>
13
14
07
18
02
0%
1+
0*
1'
1&
#150000
1#
0$
19
0<
0=
1B
0?
0>
03
04
17
12
1%
1*
0'
0&
#155000
1$
1<
1@
05
0(
#160000
0!
0"
0#
0$
0:
0;
09
0<
0@
0C
1?
1>
13
14
08
15
1(
0+
1'
1&
#165000
1$
1<
1@
1=
0B
0A
06
07
02
05
0(
0%
0*
0)
#170000
1#
0$
19
0<
0@
0=
1C
1A
0?
04
16
18
12
15
1(
1%
1+
1)
0'
#175000
1$
1<
0A
1?
14
06
0)
1'
#180000
1"
0#
0$
1;
09
0<
1@
1=
1B
17
02
05
0(
0%
1*
#185000
1$
1<
0@
0=
0>
03
12
15
1(
1%
0&
#190000
1#
0$
19
0<
1A
16
1)
#195000
1$
1<
1@
0C
0B
0A
1>
13
06
07
08
05
0(
0+
0*
0)
1&
#200000
1!
0"
0#
0$
1:
0;
09
0<
0@
1C
1B
1A
16
17
18
15
1(
1+
1*
1)
#205000
1$
1<
0A
06
0)
#210000
1#
0$
19
0<
1@
1A
16
05
0(
1)
#215000
1$
1<
0@
1=
0>
03
02
15
1(
0%
0&
#220000
1"
0#
0$
1;
09
0<
0=
0C
0?
04
08
12
1%
0+
0'
#225000
1$
1<
1=
1C
0B
1?
1>
13
14
07
18
02
0%
1+
0*
1'
1&
#230000
1#
0$
19
0<
0=
1B
0?
0>
03
04
17
12
1%
1*
0'
0&
#235000
1$
1<
1@
05
0(
#240000
0!
0"
0#
0$
0:
0;
09
0<
0@
0C
1?
1>
13
14
08
15
1(
0+
1'
1&
#245000
1$
1<
1@
1=
0B
0A
06
07
02
05
0(
0%
0*
0)
#250000
1#
0$
19
0<
0@
0=
1C
1A
0?
04
16
18
12
15
1(
1%
1+
1)
0'
#255000
1$
1<
0A
1?
14
06
0)
1'
#260000
1"
0#
0$
1;
09
0<
1@
1=
1B
17
02
05
0(
0%
1*
#265000
1$
1<
0@
0=
0>
03
12
15
1(
1%
0&
#270000
1#
0$
19
0<
1A
16
1)
#275000
1$
1<
1@
0C
0B
0A
1>
13
06
07
08
05
0(
0+
0*
0)
1&
#280000
1!
0"
0#
0$
1:
0;
09
0<
0@
1C
1B
1A
16
17
18
15
1(
1+
1*
1)
#285000
1$
1<
0A
06
0)
#290000
1#
0$
19
0<
1@
1A
16
05
0(
1)
#295000
1$
1<
0@
1=
0>
03
02
15
1(
0%
0&
#300000
1"
0#
0$
1;
09
0<
0=
0C
0?
04
08
12
1%
0+
0'
#305000
1$
1<
1=
1C
0B
1?
1>
13
14
07
18
02
0%
1+
0*
1'
1&
#310000
1#
0$
19
0<
0=
1B
0?
0>
03
04
17
12
1%
1*
0'
0&
#315000
1$
1<
1@
05
0(
#320000
0!
0"
0#
0$
0:
0;
09
0<
0@
0C
1?
1>
13
14
08
15
1(
0+
1'
1&
#325000
1$
1<
1@
1=
0B
0A
06
07
02
05
0(
0%
0*
0)
#330000
1#
0$
19
0<
0@
0=
1C
1A
0?
04
16
18
12
15
1(
1%
1+
1)
0'
#335000
1$
1<
0A
1?
14
06
0)
1'
#340000
1"
0#
0$
1;
09
0<
1@
1=
1B
17
02
05
0(
0%
1*
#345000
1$
1<
0@
0=
0>
03
12
15
1(
1%
0&
#350000
1#
0$
19
0<
1A
16
1)
#355000
1$
1<
1@
0C
0B
0A
1>
13
06
07
08
05
0(
0+
0*
0)
1&
#360000
1!
0"
0#
0$
1:
0;
09
0<
0@
1C
1B
1A
16
17
18
15
1(
1+
1*
1)
#365000
1$
1<
0A
06
0)
#370000
1#
0$
19
0<
1@
1A
16
05
0(
1)
#375000
1$
1<
0@
1=
0>
03
02
15
1(
0%
0&
#380000
1"
0#
0$
1;
09
0<
0=
0C
0?
04
08
12
1%
0+
0'
#385000
1$
1<
1=
1C
0B
1?
1>
13
14
07
18
02
0%
1+
0*
1'
1&
#390000
1#
0$
19
0<
0=
1B
0?
0>
03
04
17
12
1%
1*
0'
0&
#395000
1$
1<
1@
05
0(
#400000
0!
0"
0#
0$
0:
0;
09
0<
0@
0C
1?
1>
13
14
08
15
1(
0+
1'
1&
#405000
1$
1<
1@
1=
0B
0A
06
07
02
05
0(
0%
0*
0)
#410000
1#
0$
19
0<
0@
0=
1C
1A
0?
04
16
18
12
15
1(
1%
1+
1)
0'
#415000
1$
1<
0A
1?
14
06
0)
1'
#420000
1"
0#
0$
1;
09
0<
1@
1=
1B
17
02
05
0(
0%
1*
#425000
1$
1<
0@
0=
0>
03
12
15
1(
1%
0&
#430000
1#
0$
19
0<
1A
16
1)
#435000
1$
1<
1@
0C
0B
0A
1>
13
06
07
08
05
0(
0+
0*
0)
1&
#440000
1!
0"
0#
0$
1:
0;
09
0<
0@
1C
1B
1A
16
17
18
15
1(
1+
1*
1)
#445000
1$
1<
0A
06
0)
#450000
1#
0$
19
0<
1@
1A
16
05
0(
1)
#455000
1$
1<
0@
1=
0>
03
02
15
1(
0%
0&
#460000
1"
0#
0$
1;
09
0<
0=
0C
0?
04
08
12
1%
0+
0'
#465000
1$
1<
1=
1C
0B
1?
1>
13
14
07
18
02
0%
1+
0*
1'
1&
#470000
1#
0$
19
0<
0=
1B
0?
0>
03
04
17
12
1%
1*
0'
0&
#475000
1$
1<
1@
05
0(
#480000
0!
0"
0#
0$
0:
0;
09
0<
0@
0C
1?
1>
13
14
08
15
1(
0+
1'
1&
#485000
1$
1<
1@
1=
0B
0A
06
07
02
05
0(
0%
0*
0)
#490000
1#
0$
19
0<
0@
0=
1C
1A
0?
04
16
18
12
15
1(
1%
1+
1)
0'
#495000
1$
1<
0A
1?
14
06
0)
1'
#500000
1"
0#
0$
1;
09
0<
1@
1=
1B
17
02
05
0(
0%
1*
#505000
1$
1<
0@
0=
0>
03
12
15
1(
1%
0&
#510000
1#
0$
19
0<
1A
16
1)
#515000
1$
1<
1@
0C
0B
0A
1>
13
06
07
08
05
0(
0+
0*
0)
1&
#520000
1!
0"
0#
0$
1:
0;
09
0<
0@
1C
1B
1A
16
17
18
15
1(
1+
1*
1)
#525000
1$
1<
0A
06
0)
#530000
1#
0$
19
0<
1@
1A
16
05
0(
1)
#535000
1$
1<
0@
1=
0>
03
02
15
1(
0%
0&
#540000
1"
0#
0$
1;
09
0<
0=
0C
0?
04
08
12
1%
0+
0'
#545000
1$
1<
1=
1C
0B
1?
1>
13
14
07
18
02
0%
1+
0*
1'
1&
#550000
1#
0$
19
0<
0=
1B
0?
0>
03
04
17
12
1%
1*
0'
0&
#555000
1$
1<
1@
05
0(
#560000
0!
0"
0#
0$
0:
0;
09
0<
0@
0C
1?
1>
13
14
08
15
1(
0+
1'
1&
#565000
1$
1<
1@
1=
0B
0A
06
07
02
05
0(
0%
0*
0)
#570000
1#
0$
19
0<
0@
0=
1C
1A
0?
04
16
18
12
15
1(
1%
1+
1)
0'
#575000
1$
1<
0A
1?
14
06
0)
1'
#580000
1"
0#
0$
1;
09
0<
1@
1=
1B
17
02
05
0(
0%
1*
#585000
1$
1<
0@
0=
0>
03
12
15
1(
1%
0&
#590000
1#
0$
19
0<
1A
16
1)
#595000
1$
1<
1@
0C
0B
0A
1>
13
06
07
08
05
0(
0+
0*
0)
1&
#600000
1!
0"
0#
0$
1:
0;
09
0<
0@
1C
1B
1A
16
17
18
15
1(
1+
1*
1)
#605000
1$
1<
0A
06
0)
#610000
1#
0$
19
0<
1@
1A
16
05
0(
1)
#615000
1$
1<
0@
1=
0>
03
02
15
1(
0%
0&
#620000
1"
0#
0$
1;
09
0<
0=
0C
0?
04
08
12
1%
0+
0'
#625000
1$
1<
1=
1C
0B
1?
1>
13
14
07
18
02
0%
1+
0*
1'
1&
#630000
1#
0$
19
0<
0=
1B
0?
0>
03
04
17
12
1%
1*
0'
0&
#635000
1$
1<
1@
05
0(
#640000
0!
0"
0#
0$
0:
0;
09
0<
0@
0C
1?
1>
13
14
08
15
1(
0+
1'
1&
#645000
1$
1<
1@
1=
0B
0A
06
07
02
05
0(
0%
0*
0)
#650000
1#
0$
19
0<
0@
0=
1C
1A
0?
04
16
18
12
15
1(
1%
1+
1)
0'
#655000
1$
1<
0A
1?
14
06
0)
1'
#660000
1"
0#
0$
1;
09
0<
1@
1=
1B
17
02
05
0(
0%
1*
#665000
1$
1<
0@
0=
0>
03
12
15
1(
1%
0&
#670000
1#
0$
19
0<
1A
16
1)
#675000
1$
1<
1@
0C
0B
0A
1>
13
06
07
08
05
0(
0+
0*
0)
1&
#680000
1!
0"
0#
0$
1:
0;
09
0<
0@
1C
1B
1A
16
17
18
15
1(
1+
1*
1)
#685000
1$
1<
0A
06
0)
#690000
1#
0$
19
0<
1@
1A
16
05
0(
1)
#695000
1$
1<
0@
1=
0>
03
02
15
1(
0%
0&
#700000
1"
0#
0$
1;
09
0<
0=
0C
0?
04
08
12
1%
0+
0'
#705000
1$
1<
1=
1C
0B
1?
1>
13
14
07
18
02
0%
1+
0*
1'
1&
#710000
1#
0$
19
0<
0=
1B
0?
0>
03
04
17
12
1%
1*
0'
0&
#715000
1$
1<
1@
05
0(
#720000
0!
0"
0#
0$
0:
0;
09
0<
0@
0C
1?
1>
13
14
08
15
1(
0+
1'
1&
#725000
1$
1<
1@
1=
0B
0A
06
07
02
05
0(
0%
0*
0)
#730000
1#
0$
19
0<
0@
0=
1C
1A
0?
04
16
18
12
15
1(
1%
1+
1)
0'
#735000
1$
1<
0A
1?
14
06
0)
1'
#740000
1"
0#
0$
1;
09
0<
1@
1=
1B
17
02
05
0(
0%
1*
#745000
1$
1<
0@
0=
0>
03
12
15
1(
1%
0&
#750000
1#
0$
19
0<
1A
16
1)
#755000
1$
1<
1@
0C
0B
0A
1>
13
06
07
08
05
0(
0+
0*
0)
1&
#760000
1!
0"
0#
0$
1:
0;
09
0<
0@
1C
1B
1A
16
17
18
15
1(
1+
1*
1)
#765000
1$
1<
0A
06
0)
#770000
1#
0$
19
0<
1@
1A
16
05
0(
1)
#775000
1$
1<
0@
1=
0>
03
02
15
1(
0%
0&
#780000
1"
0#
0$
1;
09
0<
0=
0C
0?
04
08
12
1%
0+
0'
#785000
1$
1<
1=
1C
0B
1?
1>
13
14
07
18
02
0%
1+
0*
1'
1&
#790000
1#
0$
19
0<
0=
1B
0?
0>
03
04
17
12
1%
1*
0'
0&
#795000
1$
1<
1@
05
0(
#800000
0!
0"
0#
0$
0:
0;
09
0<
0@
0C
1?
1>
13
14
08
15
1(
0+
1'
1&
#805000
1$
1<
1@
1=
0B
0A
06
07
02
05
0(
0%
0*
0)
#810000
1#
0$
19
0<
0@
0=
1C
1A
0?
04
16
18
12
15
1(
1%
1+
1)
0'
#815000
1$
1<
0A
1?
14
06
0)
1'
#820000
1"
0#
0$
1;
09
0<
1@
1=
1B
17
02
05
0(
0%
1*
#825000
1$
1<
0@
0=
0>
03
12
15
1(
1%
0&
#830000
1#
0$
19
0<
1A
16
1)
#835000
1$
1<
1@
0C
0B
0A
1>
13
06
07
08
05
0(
0+
0*
0)
1&
#840000
1!
0"
0#
0$
1:
0;
09
0<
0@
1C
1B
1A
16
17
18
15
1(
1+
1*
1)
#845000
1$
1<
0A
06
0)
#850000
1#
0$
19
0<
1@
1A
16
05
0(
1)
#855000
1$
1<
0@
1=
0>
03
02
15
1(
0%
0&
#860000
1"
0#
0$
1;
09
0<
0=
0C
0?
04
08
12
1%
0+
0'
#865000
1$
1<
1=
1C
0B
1?
1>
13
14
07
18
02
0%
1+
0*
1'
1&
#870000
1#
0$
19
0<
0=
1B
0?
0>
03
04
17
12
1%
1*
0'
0&
#875000
1$
1<
1@
05
0(
#880000
0!
0"
0#
0$
0:
0;
09
0<
0@
0C
1?
1>
13
14
08
15
1(
0+
1'
1&
#885000
1$
1<
1@
1=
0B
0A
06
07
02
05
0(
0%
0*
0)
#890000
1#
0$
19
0<
0@
0=
1C
1A
0?
04
16
18
12
15
1(
1%
1+
1)
0'
#895000
1$
1<
0A
1?
14
06
0)
1'
#900000
1"
0#
0$
1;
09
0<
1@
1=
1B
17
02
05
0(
0%
1*
#905000
1$
1<
0@
0=
0>
03
12
15
1(
1%
0&
#910000
1#
0$
19
0<
1A
16
1)
#915000
1$
1<
1@
0C
0B
0A
1>
13
06
07
08
05
0(
0+
0*
0)
1&
#920000
1!
0"
0#
0$
1:
0;
09
0<
0@
1C
1B
1A
16
17
18
15
1(
1+
1*
1)
#925000
1$
1<
0A
06
0)
#930000
1#
0$
19
0<
1@
1A
16
05
0(
1)
#935000
1$
1<
0@
1=
0>
03
02
15
1(
0%
0&
#940000
1"
0#
0$
1;
09
0<
0=
0C
0?
04
08
12
1%
0+
0'
#945000
1$
1<
1=
1C
0B
1?
1>
13
14
07
18
02
0%
1+
0*
1'
1&
#950000
1#
0$
19
0<
0=
1B
0?
0>
03
04
17
12
1%
1*
0'
0&
#955000
1$
1<
1@
05
0(
#960000
0!
0"
0#
0$
0:
0;
09
0<
0@
0C
1?
1>
13
14
08
15
1(
0+
1'
1&
#965000
1$
1<
1@
1=
0B
0A
06
07
02
05
0(
0%
0*
0)
#970000
1#
0$
19
0<
0@
0=
1C
1A
0?
04
16
18
12
15
1(
1%
1+
1)
0'
#975000
1$
1<
0A
1?
14
06
0)
1'
#980000
1"
0#
0$
1;
09
0<
1@
1=
1B
17
02
05
0(
0%
1*
#985000
1$
1<
0@
0=
0>
03
12
15
1(
1%
0&
#990000
1#
0$
19
0<
1A
16
1)
#995000
1$
1<
1@
0C
0B
0A
1>
13
06
07
08
05
0(
0+
0*
0)
1&
