ultrasonicradar/simulation/qsim/ultrasonicsensor.msim.vcd
$comment
	File created using the following command:
		vcd file ultrasonicsensor.msim.vcd -direction
$end
$date
	Sat Aug 31 18:06:03 2019
$end
$version
	ModelSim Version 10.5b
$end
$timescale
	1ps
$end

$scope module stepper_motor_forwards_vlg_vec_tst $end
$var reg 1 ! CLK $end
$var reg 1 " RESET $end
$var wire 1 # blue $end
$var wire 1 $ debug_dight2 $end
$var wire 1 % debug_digit0 $end
$var wire 1 & debug_digit1 $end
$var wire 1 ' orange $end
$var wire 1 ( pink $end
$var wire 1 ) yellow $end

$scope module i1 $end
$var wire 1 * gnd $end
$var wire 1 + vcc $end
$var wire 1 , unknown $end
$var tri1 1 - devclrn $end
$var tri1 1 . devpor $end
$var tri1 1 / devoe $end
$var wire 1 0 orange~output_o $end
$var wire 1 1 yellow~output_o $end
$var wire 1 2 pink~output_o $end
$var wire 1 3 blue~output_o $end
$var wire 1 4 debug_digit0~output_o $end
$var wire 1 5 debug_digit1~output_o $end
$var wire 1 6 debug_dight2~output_o $end
$var wire 1 7 CLK~input_o $end
$var wire 1 8 inst|inst|inst5~0_combout $end
$var wire 1 9 inst|inst|inst5~feeder_combout $end
$var wire 1 : RESET~input_o $end
$var wire 1 ; RESET~inputclkctrl_outclk $end
$var wire 1 < inst|inst|inst5~q $end
$var wire 1 = inst|inst|inst4~0_combout $end
$var wire 1 > inst|inst|inst4~feeder_combout $end
$var wire 1 ? inst|inst|inst4~q $end
$var wire 1 @ inst|inst3|inst5~0_combout $end
$var wire 1 A inst|inst3|inst5~q $end
$var wire 1 B inst11~0_combout $end
$var wire 1 C inst19~combout $end
$var wire 1 D inst21~0_combout $end
$var wire 1 E inst20~combout $end
$upscope $end
$upscope $end
$enddefinitions $end
#0
$dumpvars
0!
1"
1#
0$
0%
0&
0'
1(
1)
0*
1+
x,
1-
1.
1/
00
11
12
13
04
05
06
07
18
19
1:
1;
0<
1=
1>
0?
1@
0A
0B
1C
1D
1E
$end
#5000
1!
17
1<
14
08
1%
0C
01
0)
09
#10000
0!
07
#15000
1!
17
0<
04
18
0%
1C
11
1)
19
1?
15
0=
1&
0C
1B
10
01
0)
1'
0>
#20000
0!
07
#25000
1!
17
1<
14
08
1%
0D
02
0(
09
#30000
0!
07
#35000
1!
17
0<
04
18
0%
1D
12
1(
19
0?
05
1=
0&
1C
0B
00
11
1)
0'
1>
1A
16
1$
0D
1B
0@
10
02
0(
1'
#40000
0!
07
#45000
1!
17
1<
14
08
1%
0E
03
0#
09
#50000
0!
07
#55000
1!
17
0<
04
18
0%
1E
13
1#
19
1?
15
0=
1&
0E
1D
12
03
0#
1(
0>
#60000
0!
07
#65000
1!
17
1<
14
08
1%
0B
00
0'
09
#70000
0!
07
#75000
1!
17
0<
04
18
0%
1B
10
1'
19
0?
05
1=
0&
1E
0D
02
13
1#
0(
1>
0A
06
0$
1D
0B
1@
00
12
1(
0'
#80000
0!
07
#85000
1!
17
1<
14
08
1%
0C
01
0)
09
#90000
0!
07
#95000
1!
17
0<
04
18
0%
1C
11
1)
19
1?
15
0=
1&
0C
1B
10
01
0)
1'
0>
#100000
0!
07
#105000
1!
17
1<
14
08
1%
0D
02
0(
09
#110000
0!
07
#115000
1!
17
0<
04
18
0%
1D
12
1(
19
0?
05
1=
0&
1C
0B
00
11
1)
0'
1>
1A
16
1$
0D
1B
0@
10
02
0(
1'
#120000
0!
07
#125000
1!
17
1<
14
08
1%
0E
03
0#
09
#130000
0!
07
#135000
1!
17
0<
04
18
0%
1E
13
1#
19
1?
15
0=
1&
0E
1D
12
03
0#
1(
0>
#140000
0!
07
#145000
1!
17
1<
14
08
1%
0B
00
0'
09
#150000
0!
07
#155000
1!
17
0<
04
18
0%
1B
10
1'
19
0?
05
1=
0&
1E
0D
02
13
1#
0(
1>
0A
06
0$
1D
0B
1@
00
12
1(
0'
#160000
0!
07
#165000
1!
17
1<
14
08
1%
0C
01
0)
09
#170000
0!
07
#175000
1!
17
0<
04
18
0%
1C
11
1)
19
1?
15
0=
1&
0C
1B
10
01
0)
1'
0>
#180000
0!
07
#185000
1!
17
1<
14
08
1%
0D
02
0(
09
#190000
0!
07
#195000
1!
17
0<
04
18
0%
1D
12
1(
19
0?
05
1=
0&
1C
0B
00
11
1)
0'
1>
1A
16
1$
0D
1B
0@
10
02
0(
1'
#200000
0!
07
#205000
1!
17
1<
14
08
1%
0E
03
0#
09
#210000
0!
07
#215000
1!
17
0<
04
18
0%
1E
13
1#
19
1?
15
0=
1&
0E
1D
12
03
0#
1(
0>
#220000
0!
07
#225000
1!
17
1<
14
08
1%
0B
00
0'
09
#230000
0!
07
#235000
1!
17
0<
04
18
0%
1B
10
1'
19
0?
05
1=
0&
1E
0D
02
13
1#
0(
1>
0A
06
0$
1D
0B
1@
00
12
1(
0'
#240000
0!
07
#245000
1!
17
1<
14
08
1%
0C
01
0)
09
#250000
0!
07
#255000
1!
17
0<
04
18
0%
1C
11
1)
19
1?
15
0=
1&
0C
1B
10
01
0)
1'
0>
#260000
0!
07
#265000
1!
17
1<
14
08
1%
0D
02
0(
09
#270000
0!
07
#275000
1!
17
0<
04
18
0%
1D
12
1(
19
0?
05
1=
0&
1C
0B
00
11
1)
0'
1>
1A
16
1$
0D
1B
0@
10
02
0(
1'
#280000
0!
07
#285000
1!
17
1<
14
08
1%
0E
03
0#
09
#290000
0!
07
#295000
1!
17
0<
04
18
0%
1E
13
1#
19
1?
15
0=
1&
0E
1D
12
03
0#
1(
0>
#300000
0!
07
#305000
1!
17
1<
14
08
1%
0B
00
0'
09
#310000
0!
07
#315000
1!
17
0<
04
18
0%
1B
10
1'
19
0?
05
1=
0&
1E
0D
02
13
1#
0(
1>
0A
06
0$
1D
0B
1@
00
12
1(
0'
#320000
0!
07
#325000
1!
17
1<
14
08
1%
0C
01
0)
09
#330000
0!
07
#335000
1!
17
0<
04
18
0%
1C
11
1)
19
1?
15
0=
1&
0C
1B
10
01
0)
1'
0>
#340000
0!
07
#345000
1!
17
1<
14
08
1%
0D
02
0(
09
#350000
0!
07
#355000
1!
17
0<
04
18
0%
1D
12
1(
19
0?
05
1=
0&
1C
0B
00
11
1)
0'
1>
1A
16
1$
0D
1B
0@
10
02
0(
1'
#360000
0!
07
#365000
1!
17
1<
14
08
1%
0E
03
0#
09
#370000
0!
07
#375000
1!
17
0<
04
18
0%
1E
13
1#
19
1?
15
0=
1&
0E
1D
12
03
0#
1(
0>
#380000
0!
07
#385000
1!
17
1<
14
08
1%
0B
00
0'
09
#390000
0!
07
#395000
1!
17
0<
04
18
0%
1B
10
1'
19
0?
05
1=
0&
1E
0D
02
13
1#
0(
1>
0A
06
0$
1D
0B
1@
00
12
1(
0'
#400000
0!
07
#405000
1!
17
1<
14
08
1%
0C
01
0)
09
#410000
0!
07
#415000
1!
17
0<
04
18
0%
1C
11
1)
19
1?
15
0=
1&
0C
1B
10
01
0)
1'
0>
#420000
0!
07
#425000
1!
17
1<
14
08
1%
0D
02
0(
09
#430000
0!
07
#435000
1!
17
0<
04
18
0%
1D
12
1(
19
0?
05
1=
0&
1C
0B
00
11
1)
0'
1>
1A
16
1$
0D
1B
0@
10
02
0(
1'
#440000
0!
07
#445000
1!
17
1<
14
08
1%
0E
03
0#
09
#450000
0!
07
#455000
1!
17
0<
04
18
0%
1E
13
1#
19
1?
15
0=
1&
0E
1D
12
03
0#
1(
0>
#460000
0!
07
#465000
1!
17
1<
14
08
1%
0B
00
0'
09
#470000
0!
07
#475000
1!
17
0<
04
18
0%
1B
10
1'
19
0?
05
1=
0&
1E
0D
02
13
1#
0(
1>
0A
06
0$
1D
0B
1@
00
12
1(
0'
#480000
0!
07
#485000
1!
17
1<
14
08
1%
0C
01
0)
09
#490000
0!
07
#495000
1!
17
0<
04
18
0%
1C
11
1)
19
1?
15
0=
1&
0C
1B
10
01
0)
1'
0>
#500000
0!
07
#505000
1!
17
1<
14
08
1%
0D
02
0(
09
#510000
0!
07
#515000
1!
17
0<
04
18
0%
1D
12
1(
19
0?
05
1=
0&
1C
0B
00
11
1)
0'
1>
1A
16
1$
0D
1B
0@
10
02
0(
1'
#520000
0!
07
#525000
1!
17
1<
14
08
1%
0E
03
0#
09
#530000
0!
07
#535000
1!
17
0<
04
18
0%
1E
13
1#
19
1?
15
0=
1&
0E
1D
12
03
0#
1(
0>
#540000
0!
07
#545000
1!
17
1<
14
08
1%
0B
00
0'
09
#550000
0!
07
#555000
1!
17
0<
04
18
0%
1B
10
1'
19
0?
05
1=
0&
1E
0D
02
13
1#
0(
1>
0A
06
0$
1D
0B
1@
00
12
1(
0'
#560000
0!
07
#565000
1!
17
1<
14
08
1%
0C
01
0)
09
#570000
0!
07
#575000
1!
17
0<
04
18
0%
1C
11
1)
19
1?
15
0=
1&
0C
1B
10
01
0)
1'
0>
#580000
0!
07
#585000
1!
17
1<
14
08
1%
0D
02
0(
09
#590000
0!
07
#595000
1!
17
0<
04
18
0%
1D
12
1(
19
0?
05
1=
0&
1C
0B
00
11
1)
0'
1>
1A
16
1$
0D
1B
0@
10
02
0(
1'
#600000
0!
07
#605000
1!
17
1<
14
08
1%
0E
03
0#
09
#610000
0!
07
#615000
1!
17
0<
04
18
0%
1E
13
1#
19
1?
15
0=
1&
0E
1D
12
03
0#
1(
0>
#620000
0!
07
#625000
1!
17
1<
14
08
1%
0B
00
0'
09
#630000
0!
07
#635000
1!
17
0<
04
18
0%
1B
10
1'
19
0?
05
1=
0&
1E
0D
02
13
1#
0(
1>
0A
06
0$
1D
0B
1@
00
12
1(
0'
#640000
0!
07
#645000
1!
17
1<
14
08
1%
0C
01
0)
09
#650000
0!
07
#655000
1!
17
0<
04
18
0%
1C
11
1)
19
1?
15
0=
1&
0C
1B
10
01
0)
1'
0>
#660000
0!
07
#665000
1!
17
1<
14
08
1%
0D
02
0(
09
#670000
0!
07
#675000
1!
17
0<
04
18
0%
1D
12
1(
19
0?
05
1=
0&
1C
0B
00
11
1)
0'
1>
1A
16
1$
0D
1B
0@
10
02
0(
1'
#680000
0!
07
#685000
1!
17
1<
14
08
1%
0E
03
0#
09
#690000
0!
07
#695000
1!
17
0<
04
18
0%
1E
13
1#
19
1?
15
0=
1&
0E
1D
12
03
0#
1(
0>
#700000
0!
07
#705000
1!
17
1<
14
08
1%
0B
00
0'
09
#710000
0!
07
#715000
1!
17
0<
04
18
0%
1B
10
1'
19
0?
05
1=
0&
1E
0D
02
13
1#
0(
1>
0A
06
0$
1D
0B
1@
00
12
1(
0'
#720000
0!
07
#725000
1!
17
1<
14
08
1%
0C
01
0)
09
#730000
0!
07
#735000
1!
17
0<
04
18
0%
1C
11
1)
19
1?
15
0=
1&
0C
1B
10
01
0)
1'
0>
#740000
0!
07
#745000
1!
17
1<
14
08
1%
0D
02
0(
09
#750000
0!
07
#755000
1!
17
0<
04
18
0%
1D
12
1(
19
0?
05
1=
0&
1C
0B
00
11
1)
0'
1>
1A
16
1$
0D
1B
0@
10
02
0(
1'
#760000
0!
07
#765000
1!
17
1<
14
08
1%
0E
03
0#
09
#770000
0!
07
#775000
1!
17
0<
04
18
0%
1E
13
1#
19
1?
15
0=
1&
0E
1D
12
03
0#
1(
0>
#780000
0!
07
#785000
1!
17
1<
14
08
1%
0B
00
0'
09
#790000
0!
07
#795000
1!
17
0<
04
18
0%
1B
10
1'
19
0?
05
1=
0&
1E
0D
02
13
1#
0(
1>
0A
06
0$
1D
0B
1@
00
12
1(
0'
#800000
0!
07
#805000
1!
17
1<
14
08
1%
0C
01
0)
09
#810000
0!
07
#815000
1!
17
0<
04
18
0%
1C
11
1)
19
1?
15
0=
1&
0C
1B
10
01
0)
1'
0>
#820000
0!
07
#825000
1!
17
1<
14
08
1%
0D
02
0(
09
#830000
0!
07
#835000
1!
17
0<
04
18
0%
1D
12
1(
19
0?
05
1=
0&
1C
0B
00
11
1)
0'
1>
1A
16
1$
0D
1B
0@
10
02
0(
1'
#840000
0!
07
#845000
1!
17
1<
14
08
1%
0E
03
0#
09
#850000
0!
07
#855000
1!
17
0<
04
18
0%
1E
13
1#
19
1?
15
0=
1&
0E
1D
12
03
0#
1(
0>
#860000
0!
07
#865000
1!
17
1<
14
08
1%
0B
00
0'
09
#870000
0!
07
#875000
1!
17
0<
04
18
0%
1B
10
1'
19
0?
05
1=
0&
1E
0D
02
13
1#
0(
1>
0A
06
0$
1D
0B
1@
00
12
1(
0'
#880000
0!
07
#885000
1!
17
1<
14
08
1%
0C
01
0)
09
#890000
0!
07
#895000
1!
17
0<
04
18
0%
1C
11
1)
19
1?
15
0=
1&
0C
1B
10
01
0)
1'
0>
#900000
0!
07
#905000
1!
17
1<
14
08
1%
0D
02
0(
09
#910000
0!
07
#915000
1!
17
0<
04
18
0%
1D
12
1(
19
0?
05
1=
0&
1C
0B
00
11
1)
0'
1>
1A
16
1$
0D
1B
0@
10
02
0(
1'
#920000
0!
07
#925000
1!
17
1<
14
08
1%
0E
03
0#
09
#930000
0!
07
#935000
1!
17
0<
04
18
0%
1E
13
1#
19
1?
15
0=
1&
0E
1D
12
03
0#
1(
0>
#940000
0!
07
#945000
1!
17
1<
14
08
1%
0B
00
0'
09
#950000
0!
07
#955000
1!
17
0<
04
18
0%
1B
10
1'
19
0?
05
1=
0&
1E
0D
02
13
1#
0(
1>
0A
06
0$
1D
0B
1@
00
12
1(
0'
#960000
0!
07
#965000
1!
17
1<
14
08
1%
0C
01
0)
09
#970000
0!
07
#975000
1!
17
0<
04
18
0%
1C
11
1)
19
1?
15
0=
1&
0C
1B
10
01
0)
1'
0>
#980000
0!
07
#985000
1!
17
1<
14
08
1%
0D
02
0(
09
#990000
0!
07
#995000
1!
17
0<
04
18
0%
1D
12
1(
19
0?
05
1=
0&
1C
0B
00
11
1)
0'
1>
1A
16
1$
0D
1B
0@
10
02
0(
1'
